{
  "UserAgent": "MobileHub/1.0",
  "Version": "1.0",
  "CredentialsProvider": {
    "CognitoIdentity": {
      "Default": {
        "PoolId": "us-west-2:66bd2c6b-742b-4e48-a99c-d2cbbcb89418",
        "Region": "us-west-2"
      }
    }
  },
  "IdentityManager": {
    "Default": {}
  },
  "CognitoUserPool": {
    "Default": {
      "PoolId": "us-west-2_oMEYGmPHb",
      "AppClientId": "eecbtgvdb7imc5taat3aub3de",
      "AppClientSecret": "1or4ujgbicngc3qna70ele2khg29igu8a2hilp1av9qtleqqeun3",
      "Region": "us-west-2"
    }
  },
  "PinpointAnalytics": {
    "Default": {
      "AppId": "aaec960be55a434b9947f053396923c3",
      "Region": "us-east-1"
    }
  },
  "PinpointTargeting": {
    "Default": {
      "Region": "us-east-1"
    }
  }
}